[gd_scene load_steps=2 format=3 uid="uid://doh20jh5j5116"]

[ext_resource type="Script" path="res://Assets/Menu/MenuLineEdit.gd" id="1_lc6vq"]

[node name="MenuLineEdit" type="HBoxContainer"]
anchor_right = 1.0
anchor_bottom = 1.0
script = ExtResource( "1_lc6vq" )
__meta__ = {
"_edit_use_anchors_": false
}

[node name="Label" type="Label" parent="."]
offset_top = 348.0
offset_right = 1.0
offset_bottom = 371.0

[node name="LineEdit" type="LineEdit" parent="."]
offset_left = 5.0
offset_right = 155.0
offset_bottom = 720.0
rect_min_size = Vector2(150, 0)
caret_blink = true
caret_blink_speed = 0.5

[connection signal="text_submitted" from="LineEdit" to="." method="_on_line_edit_text_submitted"]
