<?xml version="1.0" encoding="UTF-8" standalone="no"?>
<!-- Created with Inkscape (http://www.inkscape.org/) -->

<svg
   width="32"
   height="32"
   viewBox="0 0 8.4666665 8.466667"
   version="1.1"
   id="svg5"
   inkscape:version="1.1 (c4e8f9ed74, 2021-05-24)"
   sodipodi:docname="Crosshair_04.svg"
   inkscape:export-filename="Crosshair Baseline.png"
   inkscape:export-xdpi="96"
   inkscape:export-ydpi="96"
   xmlns:inkscape="http://www.inkscape.org/namespaces/inkscape"
   xmlns:sodipodi="http://sodipodi.sourceforge.net/DTD/sodipodi-0.dtd"
   xmlns:xlink="http://www.w3.org/1999/xlink"
   xmlns="http://www.w3.org/2000/svg"
   xmlns:svg="http://www.w3.org/2000/svg">
  <sodipodi:namedview
     id="namedview7"
     pagecolor="#3d3d3d"
     bordercolor="#666666"
     borderopacity="1.0"
     inkscape:pageshadow="2"
     inkscape:pageopacity="0"
     inkscape:pagecheckerboard="false"
     inkscape:document-units="mm"
     showgrid="false"
     units="px"
     borderlayer="true"
     inkscape:snap-bbox="true"
     inkscape:bbox-nodes="true"
     inkscape:snap-object-midpoints="false"
     inkscape:snap-center="true"
     inkscape:zoom="1"
     inkscape:cx="52"
     inkscape:cy="30.5"
     inkscape:window-width="1920"
     inkscape:window-height="1006"
     inkscape:window-x="0"
     inkscape:window-y="0"
     inkscape:window-maximized="1"
     inkscape:current-layer="layer1">
    <inkscape:grid
       type="xygrid"
       id="grid1019"
       originx="16.933333"
       originy="16.933334"
       empspacing="8" />
  </sodipodi:namedview>
  <defs
     id="defs2">
    <linearGradient
       inkscape:collect="always"
       id="linearGradient2268">
      <stop
         style="stop-color:#ffffff;stop-opacity:1;"
         offset="0"
         id="stop2264" />
      <stop
         style="stop-color:#ffffff;stop-opacity:0;"
         offset="1"
         id="stop2266" />
    </linearGradient>
    <linearGradient
       inkscape:collect="always"
       xlink:href="#linearGradient2268"
       id="linearGradient2270"
       x1="0.99999851"
       y1="16.000004"
       x2="-3.0000014"
       y2="16.000004"
       gradientUnits="userSpaceOnUse" />
  </defs>
  <g
     inkscape:label="Baseline"
     inkscape:groupmode="layer"
     id="layer1"
     style="display:inline">
    <path
       id="rect1324"
       style="fill:url(#linearGradient2270);stroke-width:5.18068;stroke-linecap:round;stroke-linejoin:round;stroke-miterlimit:16;paint-order:markers stroke fill"
       inkscape:transform-center-x="2.7781249"
       transform="matrix(0.1984375,0,0,0.2645833,0.85989579,4.1327287e-7)"
       d="m -3.0000014,15.000003 h 12 v 0.927902 1.072098 h -12 z"
       sodipodi:nodetypes="cccccc" />
    <use
       x="0"
       y="0"
       xlink:href="#rect1324"
       id="use1858"
       transform="rotate(90,4.233333,4.233334)"
       width="100%"
       height="100%"
       inkscape:transform-center-y="-1.8520833" />
    <use
       x="0"
       y="0"
       xlink:href="#use1858"
       id="use1860"
       transform="rotate(90,4.233333,4.233334)"
       width="100%"
       height="100%"
       inkscape:transform-center-x="-1.8520833" />
    <use
       x="0"
       y="0"
       xlink:href="#use1860"
       id="use1862"
       transform="rotate(90,4.233333,4.233334)"
       width="100%"
       height="100%"
       inkscape:transform-center-y="1.8520833" />
  </g>
  <g
     inkscape:groupmode="layer"
     id="layer2"
     inkscape:label="Hit"
     style="display:none"
     sodipodi:insensitive="true">
    <path
       style="fill:none;stroke:#ffffff;stroke-width:1px;stroke-linecap:butt;stroke-linejoin:miter;stroke-opacity:1"
       d="M 12.999999,13.000003 5.9999988,6.0000026"
       id="path1920"
       transform="scale(0.26458333)"
       inkscape:transform-center-x="1.3229167"
       inkscape:transform-center-y="-1.3229167"
       sodipodi:nodetypes="cc" />
    <use
       x="0"
       y="0"
       xlink:href="#path1920"
       inkscape:transform-center-x="-1.3229167"
       inkscape:transform-center-y="-1.3229167"
       id="use2115"
       transform="rotate(90,4.233333,4.233334)"
       width="100%"
       height="100%" />
    <use
       x="0"
       y="0"
       xlink:href="#use2115"
       inkscape:transform-center-x="-1.3229167"
       inkscape:transform-center-y="1.3229167"
       id="use2117"
       transform="rotate(90,4.233333,4.233334)"
       width="100%"
       height="100%" />
    <use
       x="0"
       y="0"
       xlink:href="#use2117"
       inkscape:transform-center-x="1.3229167"
       inkscape:transform-center-y="1.3229167"
       id="use2119"
       transform="rotate(90,4.233333,4.233334)"
       width="100%"
       height="100%" />
  </g>
  <g
     inkscape:groupmode="layer"
     id="g3038"
     inkscape:label="Kill"
     style="display:none"
     sodipodi:insensitive="true">
    <path
       id="path3030"
       style="fill:#ffffff;stroke:#ffffff;stroke-width:1;stroke-linecap:butt;stroke-linejoin:miter;stroke-miterlimit:8;stroke-dasharray:none;stroke-opacity:1"
       inkscape:transform-center-x="1.9843751"
       inkscape:transform-center-y="-1.984375"
       d="m 3.9999987,4.0000023 4.0000001,6.0000007 3.0000002,1 -1.0000001,-3.0000007 z"
       transform="scale(0.26458333)"
       sodipodi:nodetypes="ccccc" />
    <use
       x="0"
       y="0"
       xlink:href="#path3030"
       inkscape:transform-center-x="-1.984375"
       inkscape:transform-center-y="-1.984375"
       id="use4756"
       transform="rotate(90,4.233333,4.233334)"
       width="100%"
       height="100%" />
    <use
       x="0"
       y="0"
       xlink:href="#use4756"
       inkscape:transform-center-x="-1.9843749"
       inkscape:transform-center-y="1.984375"
       id="use4758"
       transform="rotate(90,4.233333,4.2333339)"
       width="100%"
       height="100%" />
    <use
       x="0"
       y="0"
       xlink:href="#use4758"
       inkscape:transform-center-x="1.984375"
       inkscape:transform-center-y="1.9843748"
       id="use4760"
       transform="rotate(90,4.2333331,4.2333339)"
       width="100%"
       height="100%" />
  </g>
</svg>
